"id","topic","uuid","code","time","sender","user_name","data"
"106","714e54f0-c073-48b9-a1cc-b90e32fb2a1d","714e54f0-c073-48b9-a1cc-b90e32fb2a1d","new-topic","1429675477","?","?","abc"
"107","714e54f0-c073-48b9-a1cc-b90e32fb2a1d","791135ae-7d40-434b-a058-ddae187b0b68","new-postit","1429675552","?","florent THEVENET","hey"
"108","714e54f0-c073-48b9-a1cc-b90e32fb2a1d","799bdade-bde8-4bb6-a916-1fb054f03ee8","new-cluster","1429676698","?","florent THEVENET","Boudhisme"
"109","714e54f0-c073-48b9-a1cc-b90e32fb2a1d","791135ae-7d40-434b-a058-ddae187b0b68","add-postit-to-cluster","1429676751","?","?","hey to Boudhisme"
"110","714e54f0-c073-48b9-a1cc-b90e32fb2a1d","791135ae-7d40-434b-a058-ddae187b0b68","auto-translate-postit-content","1429686478","?","?","ENGLISH : Hey (hey)"
"111","714e54f0-c073-48b9-a1cc-b90e32fb2a1d","791135ae-7d40-434b-a058-ddae187b0b68","update-postit-content","1429686605","?","?","FRENCH : hey what"
"112","714e54f0-c073-48b9-a1cc-b90e32fb2a1d","799bdade-bde8-4bb6-a916-1fb054f03ee8","auto-translate-cluster-title","1429690359","?","?","ENGLISH : Buddhism (Boudhisme)"
"113","714e54f0-c073-48b9-a1cc-b90e32fb2a1d","791135ae-7d40-434b-a058-ddae187b0b68","remove-postit-from-cluster","1429755500","?","?","hey what from Buddhism"
"114","714e54f0-c073-48b9-a1cc-b90e32fb2a1d","791135ae-7d40-434b-a058-ddae187b0b68","update-postit-content","1429756318","?","?","FRENCH : hey what damn"
"115","714e54f0-c073-48b9-a1cc-b90e32fb2a1d","f2cf56a9-0e38-4ecf-ba25-59b5ce61b61a","new-postit","1429765879","?","florent THEVENET","heylo"
"116","714e54f0-c073-48b9-a1cc-b90e32fb2a1d","","create-savepoint","1429767845","?","?","2015-04-23T05:44:04.210 UTC"
"117","714e54f0-c073-48b9-a1cc-b90e32fb2a1d","791135ae-7d40-434b-a058-ddae187b0b68","highlight-postit","1429767857","?","florent THEVENET","hey what damn"
"118","714e54f0-c073-48b9-a1cc-b90e32fb2a1d","791135ae-7d40-434b-a058-ddae187b0b68","delete-postit","1429767858","?","?","hey what damn"
